<svg xmlns="http://www.w3.org/2000/svg" xmlns:xlink="http://www.w3.org/1999/xlink" width="35" height="35" viewBox="0 0 35 35">
  <defs>
    <clipPath id="clip-path">
      <rect id="Rectangle_100" data-name="Rectangle 100" width="35" height="35" transform="translate(0.316 0.317)" fill="none" stroke="#707070" stroke-width="1"/>
    </clipPath>
  </defs>
  <g id="WORK_STATION_2_HIGHLIGHT" data-name="WORK STATION 2 HIGHLIGHT" transform="translate(-0.316 -0.317)" clip-path="url(#clip-path)">
    <path id="Path_279" data-name="Path 279" d="M21.23,7.218A2.248,2.248,0,0,0,20.02,6.6L10.538,5.028a2.029,2.029,0,0,0-1.756.553L5.589,8.727a1.963,1.963,0,0,0-.561,1.73l1.6,9.344a2.194,2.194,0,0,0,.624,1.192L21.9,35.432a1.577,1.577,0,0,0,2.207,0l11.772-11.6a1.522,1.522,0,0,0,0-2.175Zm-8.7,5.2a2.314,2.314,0,0,1-3.238,0,2.233,2.233,0,0,1,0-3.191,2.314,2.314,0,0,1,3.238,0A2.233,2.233,0,0,1,12.53,12.42Zm.744,9.953,9.357-9.22,1.231,1.213L14.5,23.586Zm3.693,3.64,9.357-9.22,1.231,1.213L18.2,27.225Zm4.924,4.852L20.66,29.652l9.357-9.22,1.231,1.213Z" transform="translate(-2.853 -2.624)" fill="#fff"/>
  </g>
</svg>
